…
Total de municípios únicos em df_municipios_info: 854
Total de municípios únicos em dados_mapeados: 96
Municípios em comum (interseção): 96 

Após junção com dados municipais: 0 registros sem MACRORREGIOES, 0 registros sem PORTE_IBGE.
Registros com IDHM disponível: 0 de 647 
# A tibble: 854 × 6
   MUNICIPIO                  MACRORREGIOES      URS         PORTE_IBGE Municipio_join IDHM_2010
   <chr>                      <chr>              <chr>       <chr>      <chr>              <dbl>
 1 ABADIA DOS DOURADOS        TRIÂNGULO DO NORTE Uberlândia  Pequeno P… ABADIA DOS DO…        NA
 2 CEDRO DO ABAETE            CENTRO             Sete Lagoas Pequeno P… CEDRO DO ABAE…        NA
 3 ABRE CAMPO                 LESTE DO SUL       Manhuaçu    Pequeno P… ABRE CAMPO            NA
 4 SENADOR JOSE BENTO         SUL                Pouso Aleg… Pequeno P… SENADOR JOSE …        NA
 5 SAO SEBASTIAO DO RIO PRETO CENTRO             Itabira     Pequeno P… SAO SEBASTIAO…        NA
 6 PAIVA                      CENTRO SUL         Barbacena   Pequeno P… PAIVA                 NA
 7 DORESOPOLIS                SUL                Passos      Pequeno P… DORESOPOLIS           NA
 8 ANTONIO PRADO DE MINAS     SUDESTE            Ubá         Pequeno P… ANTONIO PRADO…        NA
 9 PASSABEM                   CENTRO             Itabira     Pequeno P… PASSABEM              NA
10 OLARIA                     SUDESTE            Juiz de Fo… Pequeno P… OLARIA                NA
# ℹ 844 more rows
# ℹ Use `print(n = ...)` to see more rows
Informações de municípios carregadas e limpas com sucesso.
# A tibble: 854 × 15
   NUMERO PARTICIPANTE COLETA_FINALIZADA MACRORREGIOES URS   MUNICIPIO PORTE_IBGE POPULACAO_2021
    <dbl> <chr>        <chr>             <chr>         <chr> <chr>     <chr>               <dbl>
 1      1 EXCLUIDO     Excluido e subst… TRIÂNGULO DO… Uber… 310010-A… Pequeno P…           7022
 2    172 NÃO          <NA>              CENTRO        Sete… 311560-C… Pequeno P…           1150
 3      3 EXCLUIDO     Excluido e subst… LESTE DO SUL  Manh… 310030-A… Pequeno P…          13434
 4    775 NÃO          <NA>              SUL           Pous… 316580-S… Pequeno P…           1422
 5    761 NÃO          <NA>              CENTRO        Itab… 316480-S… Pequeno P…           1478
 6    546 NÃO          <NA>              CENTRO SUL    Barb… 314660-P… Pequeno P…           1517
 7    261 NÃO          <NA>              SUL           Pass… 312340-D… Pequeno P…           1539
 8     34 NÃO          <NA>              SUDESTE       Ubá   310310-A… Pequeno P…           1577
 9    555 NÃO          <NA>              CENTRO        Itab… 314750-P… Pequeno P…           1619
10    529 NÃO          <NA>              SUDESTE       Juiz… 314540-O… Pequeno P…           1694
# ℹ 844 more rows
# ℹ 7 more variables: N_SALAS_VACINA <dbl>, AREA_KM2_2021 <dbl>, DENSIDADE_2010 <dbl>,
#   ESCOLARIZACAO_6A14_2010 <dbl>, IDHM_2010 <dbl>, MORTALIDADE_INF_2020 <chr>,
#   PIB_PER_CAPITA_2020 <dbl>
# ℹ Use `print(n = ...)` to see more rows
Iniciando redirecionamento de output para: output/log_analise_20250507_223954.txt 
======================================================================
INÍCIO DA EXECUÇÃO DO SCRIPT analise.r
Data e hora: 07/05/2025 22:39:55 
======================================================================

# A tibble: 854 × 15
   NÚMERO PARTICIPANTE `COLETA FINALIZADA?`   MACRORREGIÕES  URS   MUNICIPIO Classificação por po…¹
    <dbl> <chr>        <chr>                  <chr>          <chr> <chr>     <chr>                 
 1      1 EXCLUIDO     Excluido e substituido TRIÂNGULO DO … Uber… 310010-A… Pequeno Porte         
 2    172 NÃO          <NA>                   CENTRO         Sete… 311560-C… Pequeno Porte         
 3      3 EXCLUIDO     Excluido e substituido LESTE DO SUL   Manh… 310030-A… Pequeno Porte         
 4    775 NÃO          <NA>                   SUL            Pous… 316580-S… Pequeno Porte         
 5    761 NÃO          <NA>                   CENTRO         Itab… 316480-S… Pequeno Porte         
 6    546 NÃO          <NA>                   CENTRO SUL     Barb… 314660-P… Pequeno Porte         
 7    261 NÃO          <NA>                   SUL            Pass… 312340-D… Pequeno Porte         
 8     34 NÃO          <NA>                   SUDESTE        Ubá   310310-A… Pequeno Porte         
 9    555 NÃO          <NA>                   CENTRO         Itab… 314750-P… Pequeno Porte         
10    529 NÃO          <NA>                   SUDESTE        Juiz… 314540-O… Pequeno Porte         
# ℹ 844 more rows
# ℹ abbreviated name: ¹​`Classificação por porte\r\npopulacional conforme\r\nIBGE`
# ℹ 8 more variables: `População estimada \r\npessoas [2021]` <dbl>,
#   `Nº SALAS \r\nDE VACINA` <dbl>, `Área Territorial \r\nkm² [2021]` <dbl>,
#   `Densidade demográfica \r\n- hab/km² [2010]` <dbl>,
#   `Escolarização <span>6 \r\na 14 anos</span> - % [2010]` <dbl>,
#   `IDHM <span>Índice de \r\ndesenvolvimento humano \r\nmunicipal</span> [2010]` <dbl>, …
# ℹ Use `print(n = ...)` to see more rows
…
Diretório 'output' já existe.
Diretório 'imagens' já existe em output 
Diretório 'tabelas' já existe em output 
Informações de municípios carregadas e limpas com sucesso.
Verificando se IDHM_2010 está presente: TRUE 
# A tibble: 854 × 6
   MUNICIPIO                  MACRORREGIOES      URS          PORTE_IBGE   IDHM_2010 Municipio_join
   <chr>                      <chr>              <chr>        <chr>            <dbl> <chr>         
 1 ABADIA DOS DOURADOS        TRIÂNGULO DO NORTE Uberlândia   Pequeno Por…     0.689 ABADIA DOS DO…
 2 CEDRO DO ABAETE            CENTRO             Sete Lagoas  Pequeno Por…     0.678 CEDRO DO ABAE…
 3 ABRE CAMPO                 LESTE DO SUL       Manhuaçu     Pequeno Por…     0.654 ABRE CAMPO    
 4 SENADOR JOSE BENTO         SUL                Pouso Alegre Pequeno Por…     0.684 SENADOR JOSE …
 5 SAO SEBASTIAO DO RIO PRETO CENTRO             Itabira      Pequeno Por…     0.632 SAO SEBASTIAO…
 6 PAIVA                      CENTRO SUL         Barbacena    Pequeno Por…     0.72  PAIVA         
 7 DORESOPOLIS                SUL                Passos       Pequeno Por…     0.692 DORESOPOLIS   
 8 ANTONIO PRADO DE MINAS     SUDESTE            Ubá          Pequeno Por…     0.684 ANTONIO PRADO…
 9 PASSABEM                   CENTRO             Itabira      Pequeno Por…     0.642 PASSABEM      
10 OLARIA                     SUDESTE            Juiz de Fora Pequeno Por…     0.636 OLARIA        
# ℹ 844 more rows
# ℹ Use `print(n = ...)` to see more rows
…
Os pacotes binários baixados estão em
	C:\Users\Fabricio\AppData\Local\Temp\RtmpAjIM2V\downloaded_packages
[1] "output/dados_mapeados_com_pontuacoes.xlsx"
# A tibble: 647 × 75
   `Carimbo de data/hora` \nDeclaro que concordo e…¹ Município
   <dttm>                 <chr>                      <chr>    
 1 2023-11-17 14:37:57    Sim                        Jequitaí 
 2 2023-11-24 15:11:28    Sim                        Bom Desp…
 3 2023-11-29 06:41:27    Sim                        Varzelân…
 4 2023-11-29 15:18:49    Sim                        Varzelân…
 5 2023-12-13 14:19:13    Sim                        Jequitin…
 6 2024-02-19 09:52:30    Sim                        Almenara 
 7 2023-12-11 11:38:44    Sim                        Jampruca 
 8 2024-04-12 16:11:22    Sim                        Água Boa 
 9 2024-04-15 14:02:14    Sim                        Almenara 
10 2024-04-16 14:51:36    Sim                        Almenara 
# ℹ 637 more rows
# ℹ abbreviated name:
#   ¹​`\nDeclaro que concordo em participar da pesquisa.`
# ℹ 72 more variables:
#   `Unidade de Atenção Primária à Saúde` <chr>,
#   `Localidade da Unidade de Saúde` <chr>,
#   `A Unidade Básica de Saúde (UBS/PSF/ESF) que você trabalha possui acesso a internet?` <chr>, …
# ℹ Use `print(n = ...)` to see more rows
…
$ satisfacao_trabalho                                                                                                                           <dbl> …
$ percepcao_estresse                                                                                                                            <dbl> …
$ percepcao_gestao                                                                                                                              <dbl> …
$ condicoes_trabalho                                                                                                                            <dbl> …
$ clima_seguranca_total                                                                                                                         <dbl> …
$ clima_dominio_medio                                                                                                                           <dbl> …
$ classificacao_clima                                                                                                                           <fct> …
$ Municipio_join                                                                                                                                <chr> …
$ MACRORREGIOES                                                                                                                                 <chr> …
$ URS                                                                                                                                           <chr> …
$ PORTE_IBGE                                                                                                                                    <fct> …
$ IDHM_2010                                                                                                                                     <dbl> …
Dados carregados. Número de observações: 647 
INFO: Coluna 'faixa_etaria' foi criada dinamicamente.
# A tibble: 647 × 76
   `Carimbo de data/hora` \nDeclaro que concordo e…¹ Município
   <dttm>                 <chr>                      <chr>    
 1 2023-11-17 14:37:57    Sim                        Jequitaí 
 2 2023-11-24 15:11:28    Sim                        Bom Desp…
 3 2023-11-29 06:41:27    Sim                        Varzelân…
 4 2023-11-29 15:18:49    Sim                        Varzelân…
 5 2023-12-13 14:19:13    Sim                        Jequitin…
 6 2024-02-19 09:52:30    Sim                        Almenara 
 7 2023-12-11 11:38:44    Sim                        Jampruca 
 8 2024-04-12 16:11:22    Sim                        Água Boa 
 9 2024-04-15 14:02:14    Sim                        Almenara 
10 2024-04-16 14:51:36    Sim                        Almenara 
# ℹ 637 more rows
# ℹ abbreviated name:
#   ¹​`\nDeclaro que concordo em participar da pesquisa.`
# ℹ 73 more variables:
#   `Unidade de Atenção Primária à Saúde` <chr>,
#   `Localidade da Unidade de Saúde` <chr>,
#   `A Unidade Básica de Saúde (UBS/PSF/ESF) que você trabalha possui acesso a internet?` <chr>, …
# ℹ Use `print(n = ...)` to see more rows
…
