======================================================================
INÍCIO DA EXECUÇÃO DO SCRIPT analise.r
Data e hora: 07/05/2025 22:45:26 
======================================================================

Diretório 'output' já existe.
Diretório 'imagens' já existe em output 
Diretório 'tabelas' já existe em output 
Informações de municípios carregadas e limpas com sucesso.
Verificando se IDHM_2010 está presente: TRUE 
# A tibble: 854 × 6
   MUNICIPIO                  MACRORREGIOES      URS          PORTE_IBGE   IDHM_2010 Municipio_join
   <chr>                      <chr>              <chr>        <chr>            <dbl> <chr>         
 1 ABADIA DOS DOURADOS        TRIÂNGULO DO NORTE Uberlândia   Pequeno Por…     0.689 ABADIA DOS DO…
 2 CEDRO DO ABAETE            CENTRO             Sete Lagoas  Pequeno Por…     0.678 CEDRO DO ABAE…
 3 ABRE CAMPO                 LESTE DO SUL       Manhuaçu     Pequeno Por…     0.654 ABRE CAMPO    
 4 SENADOR JOSE BENTO         SUL                Pouso Alegre Pequeno Por…     0.684 SENADOR JOSE …
 5 SAO SEBASTIAO DO RIO PRETO CENTRO             Itabira      Pequeno Por…     0.632 SAO SEBASTIAO…
 6 PAIVA                      CENTRO SUL         Barbacena    Pequeno Por…     0.72  PAIVA         
 7 DORESOPOLIS                SUL                Passos       Pequeno Por…     0.692 DORESOPOLIS   
 8 ANTONIO PRADO DE MINAS     SUDESTE            Ubá          Pequeno Por…     0.684 ANTONIO PRADO…
 9 PASSABEM                   CENTRO             Itabira      Pequeno Por…     0.642 PASSABEM      
10 OLARIA                     SUDESTE            Juiz de Fora Pequeno Por…     0.636 OLARIA        
# ℹ 844 more rows
# ℹ Use `print(n = ...)` to see more rows
…
Os pacotes binários baixados estão em
	C:\Users\Fabricio\AppData\Local\Temp\RtmpAjIM2V\downloaded_packages
[1] "output/dados_mapeados_com_pontuacoes.xlsx"
# A tibble: 647 × 75
   `Carimbo de data/hora` \nDeclaro que concordo e…¹ Município
   <dttm>                 <chr>                      <chr>    
 1 2023-11-17 14:37:57    Sim                        Jequitaí 
 2 2023-11-24 15:11:28    Sim                        Bom Desp…
 3 2023-11-29 06:41:27    Sim                        Varzelân…
 4 2023-11-29 15:18:49    Sim                        Varzelân…
 5 2023-12-13 14:19:13    Sim                        Jequitin…
 6 2024-02-19 09:52:30    Sim                        Almenara 
 7 2023-12-11 11:38:44    Sim                        Jampruca 
 8 2024-04-12 16:11:22    Sim                        Água Boa 
 9 2024-04-15 14:02:14    Sim                        Almenara 
10 2024-04-16 14:51:36    Sim                        Almenara 
# ℹ 637 more rows
# ℹ abbreviated name:
#   ¹​`\nDeclaro que concordo em participar da pesquisa.`
# ℹ 72 more variables:
#   `Unidade de Atenção Primária à Saúde` <chr>,
#   `Localidade da Unidade de Saúde` <chr>,
#   `A Unidade Básica de Saúde (UBS/PSF/ESF) que você trabalha possui acesso a internet?` <chr>, …
# ℹ Use `print(n = ...)` to see more rows
…
$ satisfacao_trabalho                                                                                                                           <dbl> …
$ percepcao_estresse                                                                                                                            <dbl> …
$ percepcao_gestao                                                                                                                              <dbl> …
$ condicoes_trabalho                                                                                                                            <dbl> …
$ clima_seguranca_total                                                                                                                         <dbl> …
$ clima_dominio_medio                                                                                                                           <dbl> …
$ classificacao_clima                                                                                                                           <fct> …
$ Municipio_join                                                                                                                                <chr> …
$ MACRORREGIOES                                                                                                                                 <chr> …
$ URS                                                                                                                                           <chr> …
$ PORTE_IBGE                                                                                                                                    <fct> …
$ IDHM_2010                                                                                                                                     <dbl> …
Dados carregados. Número de observações: 647 
INFO: Coluna 'faixa_etaria' foi criada dinamicamente.
# A tibble: 647 × 76
   `Carimbo de data/hora` \nDeclaro que concordo e…¹ Município
   <dttm>                 <chr>                      <chr>    
 1 2023-11-17 14:37:57    Sim                        Jequitaí 
 2 2023-11-24 15:11:28    Sim                        Bom Desp…
 3 2023-11-29 06:41:27    Sim                        Varzelân…
 4 2023-11-29 15:18:49    Sim                        Varzelân…
 5 2023-12-13 14:19:13    Sim                        Jequitin…
 6 2024-02-19 09:52:30    Sim                        Almenara 
 7 2023-12-11 11:38:44    Sim                        Jampruca 
 8 2024-04-12 16:11:22    Sim                        Água Boa 
 9 2024-04-15 14:02:14    Sim                        Almenara 
10 2024-04-16 14:51:36    Sim                        Almenara 
# ℹ 637 more rows
# ℹ abbreviated name:
#   ¹​`\nDeclaro que concordo em participar da pesquisa.`
# ℹ 73 more variables:
#   `Unidade de Atenção Primária à Saúde` <chr>,
#   `Localidade da Unidade de Saúde` <chr>,
#   `A Unidade Básica de Saúde (UBS/PSF/ESF) que você trabalha possui acesso a internet?` <chr>, …
# ℹ Use `print(n = ...)` to see more rows
…
